…
## Loading the data

The data presents results of a market test for fruit juice with 2
advertising levels × 3 price levels, which gives 6 experimental
conditions, with 5 supermarkets per condition.

``` r
fruitazia <- readxl::read_excel("C:/Users/hlaba/Desktop/Marketing/fruitazia.xlsx")
fruitazia$Price <- as.factor(fruitazia$Price) # converting price to a factor 
fruitazia$AdSpend <- as.factor(fruitazia$AdSpend) # converting AdSpend into a factor

fruitazia
```

    ## # A tibble: 30 × 6
    ##    Sales Price AdSpend AdSpend2 Price4.9 Price5.9
    ##    <dbl> <fct> <fct>      <dbl>    <dbl>    <dbl>
    ##  1   499 3.9   1              0        0        0
    ##  2   595 3.9   1              0        0        0
    ##  3   496 3.9   1              0        0        0
    ##  4   607 3.9   1              0        0        0
    ##  5   550 3.9   1              0        0        0
    ##  6   989 3.9   2              1        0        0
    ##  7   721 3.9   2              1        0        0
    ##  8   823 3.9   2              1        0        0
    ##  9  1001 3.9   2              1        0        0
    ## 10   881 3.9   2              1        0        0
    ## # … with 20 more rows
…
